<?xml version="1.0" encoding="utf-8"?>
<!-- Generator: Adobe Illustrator 23.0.3, SVG Export Plug-In . SVG Version: 6.00 Build 0)  -->
<svg version="1.1" id="Layer_1" xmlns="http://www.w3.org/2000/svg" xmlns:xlink="http://www.w3.org/1999/xlink" x="0px" y="0px"
	 viewBox="0 0 1919 1022" style="enable-background:new 0 0 1919 1022;" xml:space="preserve">
<style type="text/css">
	.st0{clip-path:url(#SVGID_2_);}
	.st1{fill:#FFFFFF;}
	.st2{fill:#88B337;}
	.st3{clip-path:url(#SVGID_2_);fill:#6B962A;}
	.st4{clip-path:url(#SVGID_2_);fill:#FFFFFF;}
	.st5{fill:#FDB62F;}
	.st6{clip-path:url(#SVGID_2_);fill:#FEC9A3;}
	.st7{clip-path:url(#SVGID_2_);fill:#F7BB8F;}
	.st8{clip-path:url(#SVGID_2_);fill:#4398D1;}
	.st9{clip-path:url(#SVGID_2_);fill:#3E8CC7;}
	.st10{clip-path:url(#SVGID_2_);fill:#D9D9D9;}
	.st11{fill:#6E8C61;}
	.st12{fill:#E9E8D3;}
	.st13{fill:#FCC62D;}
	.st14{fill:#D19D18;}
	.st15{fill:#E4AF18;}
	.st16{fill:#607B53;}
	.st17{fill:#546949;}
	.st18{fill:#CE9912;}
	.st19{fill:#FFD949;}
	.st20{fill:#F0C41B;}
	.st21{fill:#56B46F;}
	.st22{fill:#74BE86;}
	.st23{fill:#4D8157;}
	.st24{fill:#EAEAD7;}
	.st25{fill:#83C38E;}
	.st26{clip-path:url(#SVGID_2_);fill:#CCD0D2;}
	.st27{clip-path:url(#SVGID_2_);fill:#E4E7E7;}
	.st28{clip-path:url(#SVGID_2_);fill:#36434F;}
	.st29{clip-path:url(#SVGID_2_);fill:#465765;}
	.st30{clip-path:url(#SVGID_2_);fill:#C2C5C5;}
	.st31{clip-path:url(#SVGID_2_);fill:#B7BBBD;}
	.st32{clip-path:url(#SVGID_2_);fill:#EBEBEB;}
	.st33{clip-path:url(#SVGID_2_);fill:#DEDEDC;}
	.st34{clip-path:url(#SVGID_2_);fill:#F0F0F0;}
	.st35{clip-path:url(#SVGID_2_);fill:#34B2A6;}
	.st36{clip-path:url(#SVGID_2_);fill:#B9B9B9;}
	.st37{clip-path:url(#SVGID_2_);fill:#CDCDCD;}
	.st38{clip-path:url(#SVGID_2_);fill:#C0F5F9;}
	.st39{clip-path:url(#SVGID_2_);fill:#38C1B4;}
	.st40{clip-path:url(#SVGID_2_);fill:#428DC5;}
	.st41{clip-path:url(#SVGID_2_);fill:#F7BA61;}
	.st42{clip-path:url(#SVGID_2_);fill:#FBB540;}
	.st43{clip-path:url(#SVGID_2_);fill:#2C998F;}
	.st44{clip-path:url(#SVGID_2_);fill:#30A69B;}
	.st45{clip-path:url(#SVGID_2_);fill:#298D84;}
</style>
<g>
	<defs>
		<rect id="SVGID_1_" width="1919" height="1022"/>
	</defs>
	<clipPath id="SVGID_2_">
		<use xlink:href="#SVGID_1_"  style="overflow:visible;"/>
	</clipPath>
	<g class="st0">
		<g>
			<path class="st1" d="M0,0h1919v244.4L1079.6,643c-76,36.1-164.2,36.1-240.2,0L0,244.4V0z"/>
		</g>
	</g>
	<g class="st0">
		<path class="st2" d="M1065.3,511.9c0-2.1-0.6-4.2-1.7-6l-10.7-17.3c-1.3-2.7-2-5.6-2-8.6v-53.3c0-34.6-28-62.6-62.6-62.6h-28.9
			c-34.6,0-62.6,28-62.6,62.6v53.3c0,3-0.7,5.9-2,8.6L883.9,506c-1.1,1.8-1.7,3.9-1.7,6l0,0c0,6.2,5,11.2,11.2,11.2h160.6
			C1060.2,523.1,1065.3,518.1,1065.3,511.9z"/>
		<polygon class="st2" points="988.2,364.2 1012.3,330.5 935.2,330.5 959.3,364.2 959.3,373.9 988.2,373.9 		"/>
	</g>
	<path class="st3" d="M1063.6,506l-10.7-17.3c-1.3-2.7-2-5.6-2-8.6v-53.3c0-13.9-4.6-27.5-13.1-38.5
		C1024.8,459.2,979.6,500,937,523.2h117c6.2,0,11.3-5,11.3-11.2C1065.4,509.8,1064.8,507.8,1063.6,506L1063.6,506z"/>
	<path class="st4" d="M997.9,436.5v-3.1c0-8.9-7.3-16.2-16.2-16.2h-3.1v-9.6H969v9.6h-3.1c-8.9,0-16.2,7.2-16.2,16.1
		c0,6.8,4.2,12.9,10.6,15.2l8.8,3.3v18.4h-3.1c-3.6,0-6.6-2.9-6.6-6.6l0,0v-3.1h-9.6v3.1c0,8.9,7.3,16.2,16.2,16.2h15.8
		c8.9,0,16.2-7.2,16.2-16.1c0-6.8-4.2-12.9-10.6-15.2l-8.8-3.3v-18.4h3.1c3.6,0,6.6,2.9,6.6,6.6l0,0v3.1L997.9,436.5L997.9,436.5z
		 M984,457.5c2.5,1,4.2,3.4,4.2,6.2c0,3.6-2.9,6.6-6.6,6.6l0,0h-3.1v-14.7L984,457.5z M969,441.6l-5.4-2c-2.5-1-4.2-3.4-4.2-6.2
		c0-3.6,2.9-6.6,6.6-6.6l0,0h3.1V441.6z"/>
	<g class="st0">
		<path class="st5" d="M1070.1,378.7L1070.1,378.7c-1.6-9.9-9.4-17.6-19.3-19.3l0,0c9.9-1.6,17.6-9.4,19.3-19.3l0,0
			c1.6,9.9,9.4,17.6,19.3,19.3l0,0C1079.5,361.1,1071.7,368.8,1070.1,378.7z"/>
		<path class="st5" d="M853.4,475L853.4,475c-1.6-9.9-9.4-17.6-19.3-19.3l0,0c9.9-1.6,17.6-9.4,19.3-19.3l0,0
			c1.6,9.9,9.4,17.6,19.3,19.3l0,0C862.7,457.4,855,465.1,853.4,475z"/>
	</g>
	<path class="st6" d="M1111.4,498.6c-4-6.7-12.5-9-19.3-5.3l-68.3,29.2c-1.2,0.5-2.5,0.8-3.8,0.8h-84.7c-5.3,0-9.6-4.3-9.6-9.6
		c0-5.3,4.3-9.6,9.6-9.6h38.5c16,0,28.9-12.9,28.9-28.9h-80.1c-13.3,0-25.8,6.1-34.1,16.4L858.2,528l34,62.3l130.9-31.5
		c5.7-1.3,11.1-3.3,16.3-6l67.4-34.5C1113.5,514.1,1115.5,505.3,1111.4,498.6z"/>
	<path class="st7" d="M881.3,570.5l10.8,19.8l130.9-31.5c5.7-1.3,11.1-3.3,16.3-6l36.5-18.7C1015.2,552.7,934.8,564.3,881.3,570.5z"
		/>
	<polygon class="st8" points="834.1,523.2 834.1,609.9 896.7,609.9 911.2,595.4 853.4,508.7 	"/>
	<path class="st9" d="M834.1,609.9h62.6l14.4-14.4l-10.6-15.9c-21.4,8.8-43.7,15.5-66.5,19.8V609.9z"/>
	<circle class="st10" cx="877.4" cy="585.8" r="9.6"/>
	<g id="XMLID_78_" class="st0">
		<path id="XMLID_127_" class="st11" d="M715,489.7v-8.2v-8.2v-8.2V457c0-6.8,8.7-12.3,19.4-12.3c2.5,0,4.9,0.3,7.2,0.9v-60.2h-65.5
			V500h47.6C718.5,497.8,715,494,715,489.7"/>
		<path id="XMLID_126_" class="st12" d="M686.4,428.5c4.7-7.5,13-12.5,22.5-12.5s17.8,5,22.5,12.5v-20.7c-0.3,0-0.7,0.1-1,0.1
			c-6.2,0-11.3-5-11.3-11.3c0-0.3,0-0.7,0.1-1h-20.6c0,0.3,0.1,0.7,0.1,1c0,6.2-5,11.3-11.3,11.3c-0.3,0-0.7,0-1-0.1V428.5z"/>
		<path id="XMLID_125_" class="st12" d="M715,473.4v-4.8c-2,0.5-4,0.7-6.1,0.7c-9.5,0-17.8-5-22.5-12.5v20.7c0.3,0,0.7-0.1,1-0.1
			c6.2,0,11.3,5,11.3,11.3c0,0.3,0,0.7-0.1,1H715v-8.2V473.4z"/>
		<path id="XMLID_124_" class="st12" d="M725.3,396.6c0-2.8,2.3-5.1,5.1-5.1s5.1,2.3,5.1,5.1s-2.3,5.1-5.1,5.1
			S725.3,399.4,725.3,396.6"/>
		<path id="XMLID_123_" class="st12" d="M682.3,396.6c0-2.8,2.3-5.1,5.1-5.1c2.8,0,5.1,2.3,5.1,5.1s-2.3,5.1-5.1,5.1
			C684.6,401.7,682.3,399.4,682.3,396.6"/>
		<path id="XMLID_122_" class="st12" d="M682.3,488.7c0-2.8,2.3-5.1,5.1-5.1c2.8,0,5.1,2.3,5.1,5.1c0,2.8-2.3,5.1-5.1,5.1
			C684.6,493.8,682.3,491.5,682.3,488.7"/>
		<path id="XMLID_121_" class="st13" d="M753.9,457c0,6.8-8.7,12.3-19.4,12.3c-10.7,0-19.4-5.5-19.4-12.3s8.7-12.3,19.4-12.3
			C745.2,444.7,753.9,450.2,753.9,457"/>
		<path id="XMLID_120_" class="st14" d="M734.5,493.8c-10.7,0-19.4-5.5-19.4-12.3v8.2c0,6.8,8.7,12.3,19.4,12.3
			c10.7,0,19.4-5.5,19.4-12.3v-8.2C753.9,488.3,745.2,493.8,734.5,493.8"/>
		<path id="XMLID_119_" class="st15" d="M734.5,485.6c-10.7,0-19.4-5.5-19.4-12.3v8.2c0,6.8,8.7,12.3,19.4,12.3
			c10.7,0,19.4-5.5,19.4-12.3v-8.2C753.9,480.1,745.2,485.6,734.5,485.6"/>
		<path id="XMLID_118_" class="st14" d="M734.5,477.5c-10.7,0-19.4-5.5-19.4-12.3v8.2c0,6.8,8.7,12.3,19.4,12.3
			c10.7,0,19.4-5.5,19.4-12.3v-8.2C753.9,472,745.2,477.5,734.5,477.5"/>
		<path id="XMLID_117_" class="st15" d="M734.5,469.3c-10.7,0-19.4-5.5-19.4-12.3v8.2c0,6.8,8.7,12.3,19.4,12.3
			c10.7,0,19.4-5.5,19.4-12.3V457C753.9,463.8,745.2,469.3,734.5,469.3"/>
		<path id="XMLID_116_" class="st13" d="M780.5,432.4c0,6.8-8.7,12.3-19.4,12.3c-10.7,0-19.4-5.5-19.4-12.3
			c0-6.8,8.7-12.3,19.4-12.3C771.8,420.1,780.5,425.6,780.5,432.4"/>
		<path id="XMLID_115_" class="st12" d="M721,448.1c4.3-7.7,0.2-15.7,0.2-15.7c-1.7-0.5-6.9,1-7.4,2.7c-1.8-1.7-4.2-2.7-6.9-2.7
			c-3.3,0-4.7,3.5-5.7,3.8c-0.5,0.2-1,0.3-1.5,0.3c-1.5,0-3-0.8-4-1.9l-7.6-8.4c-3.5,4.5-5.7,10.2-5.7,16.4s2.1,11.9,5.7,16.4
			l7.6-8.3c1.2-1.4,3.1-2.2,4.9-1.9c0.3,0,0.5,0.1,0.8,0.2c0.7,0.2,3.9,3.6,4.6,3.7c2.1,5.1,6.8,3,10,0.8
			C716.8,451.5,718.6,449.6,721,448.1"/>
		<path id="XMLID_114_" class="st15" d="M761.1,493.8c-2.8,0-5.4-0.4-7.8-1c-0.9,2.3-2.9,4.3-5.5,5.9c3.5,2.1,8.2,3.3,13.3,3.3
			c10.7,0,19.4-5.5,19.4-12.3v-8.2C780.5,488.3,771.8,493.8,761.1,493.8"/>
		<path id="XMLID_113_" class="st14" d="M761.1,485.6c-2.5,0-4.9-0.3-7.2-0.9v5c0,1.1-0.2,2.1-0.6,3.1c2.4,0.7,5,1,7.8,1
			c10.7,0,19.4-5.5,19.4-12.3v-8.2C780.5,480.1,771.8,485.6,761.1,485.6"/>
		<path id="XMLID_112_" class="st15" d="M761.1,477.5c-2.5,0-4.9-0.3-7.2-0.9v5v3.2c2.2,0.6,4.6,0.9,7.2,0.9
			c10.7,0,19.4-5.5,19.4-12.3v-8.2C780.5,472,771.8,477.5,761.1,477.5"/>
		<path id="XMLID_111_" class="st14" d="M761.1,469.3c-2.5,0-4.9-0.3-7.2-0.9v5v3.2c2.2,0.6,4.6,0.9,7.2,0.9
			c10.7,0,19.4-5.5,19.4-12.3V457C780.5,463.8,771.8,469.3,761.1,469.3"/>
		<path id="XMLID_110_" class="st15" d="M761.1,461.1c-2.5,0-4.9-0.3-7.2-0.9v5v3.2c2.2,0.6,4.6,0.9,7.2,0.9
			c10.7,0,19.4-5.5,19.4-12.3v-8.2C780.5,455.6,771.8,461.1,761.1,461.1"/>
		<path id="XMLID_109_" class="st14" d="M761.1,452.9c-3.4,0-6.5-0.5-9.3-1.5c1.4,1.7,2.1,3.6,2.1,5.6v3.2c2.2,0.6,4.6,0.9,7.2,0.9
			c10.7,0,19.4-5.5,19.4-12.3v-8.2C780.5,447.4,771.8,452.9,761.1,452.9"/>
		<path id="XMLID_108_" class="st15" d="M761.1,444.7c-10.7,0-19.4-5.5-19.4-12.3v8.2c0,2,0.8,3.9,2.1,5.6c3.4,1.2,6.2,3,8,5.2
			c2.8,1,5.9,1.5,9.3,1.5c10.7,0,19.4-5.5,19.4-12.3v-8.2C780.5,439.2,771.8,444.7,761.1,444.7"/>
		<path id="XMLID_107_" class="st16" d="M760.1,420.2v-34.8h-6.1V421C755.8,420.5,757.9,420.3,760.1,420.2"/>
		<path id="XMLID_106_" class="st17" d="M753.9,421v-35.7h-6.1v38.1C749.5,422.4,751.6,421.6,753.9,421"/>
		<path id="XMLID_77_" class="st16" d="M747.8,423.5v-38.1h-6.1v47.1C741.6,428.9,744,425.7,747.8,423.5"/>
	</g>
	<g id="XMLID_22_" class="st0">
		<path id="XMLID_143_" class="st13" d="M496,350.9v1.6c0,8.8-14.8,15.9-33,15.9c-10,0-19-2.2-25.1-5.6c2,7.9,15.9,14.5,32.7,14.5
			c18.2,0,33-7.7,33-16.5C503.6,356.9,500.7,353.5,496,350.9"/>
		<path id="XMLID_142_" class="st15" d="M470.6,377.3c-18.2,0-33-7.7-33-16.5v10.7c0,8.8,14.8,15.9,33,15.9c18.2,0,33-7.1,33-15.9
			v-10.7C503.6,369.6,488.8,377.3,470.6,377.3"/>
		<path id="XMLID_141_" class="st18" d="M441.5,379c0.7,0.7,1.6,1.3,2.5,2v-10.5c-0.9-0.6-1.8-1.3-2.5-2V379z"/>
		<path id="XMLID_140_" class="st18" d="M497.2,370.4v10.5c0.9-0.6,1.8-1.3,2.5-2v-10.6C499,369.1,498.2,369.8,497.2,370.4"/>
		<path id="XMLID_139_" class="st18" d="M446.5,382.4c0.8,0.4,1.6,0.8,2.5,1.2v-10.4c-0.9-0.4-1.7-0.8-2.5-1.2V382.4z"/>
		<path id="XMLID_138_" class="st18" d="M492.2,383.6c0.9-0.4,1.7-0.8,2.5-1.2V372c-0.8,0.4-1.6,0.8-2.5,1.2V383.6z"/>
		<path id="XMLID_137_" class="st18" d="M451.6,384.5c0.8,0.3,1.7,0.5,2.5,0.8V375c-0.9-0.3-1.7-0.5-2.5-0.8V384.5z"/>
		<path id="XMLID_136_" class="st18" d="M487.1,385.3c0.9-0.2,1.7-0.5,2.5-0.8v-10.3c-0.8,0.3-1.7,0.6-2.5,0.8V385.3z"/>
		<path id="XMLID_135_" class="st18" d="M457.9,386.2c0.8,0.2,1.7,0.3,2.5,0.4v-10.2c-0.9-0.1-1.7-0.3-2.5-0.5V386.2z"/>
		<path id="XMLID_134_" class="st18" d="M480.7,386.7c0.9-0.1,1.7-0.3,2.5-0.4V376c-0.8,0.2-1.7,0.3-2.5,0.5V386.7z"/>
		<path id="XMLID_133_" class="st18" d="M465.5,387.3c0.8,0.1,1.7,0.1,2.5,0.1v-10.1c-0.9,0-1.7-0.1-2.5-0.1V387.3z"/>
		<path id="XMLID_132_" class="st18" d="M473.1,387.4c0.9,0,1.7-0.1,2.5-0.1v-10.2c-0.8,0.1-1.7,0.1-2.5,0.1V387.4z"/>
		<path id="XMLID_131_" class="st15" d="M463,358.2c-18.2,0-33-7.7-33-16.5v10.7c0,8.8,14.8,15.9,33,15.9s33-7.1,33-15.9v-10.7
			C496,350.5,481.2,358.2,463,358.2"/>
		<path id="XMLID_130_" class="st18" d="M433.8,359.9c0.7,0.7,1.6,1.3,2.5,2v-10.5c-0.9-0.6-1.8-1.3-2.5-2
			C433.8,349.4,433.8,359.9,433.8,359.9z"/>
		<path id="XMLID_129_" class="st18" d="M489.6,351.4v10.5c0.9-0.6,1.8-1.3,2.5-2v-10.6C491.4,350.1,490.6,350.8,489.6,351.4"/>
		<path id="XMLID_128_" class="st18" d="M438.9,363.4c0.8,0.4,1.6,0.8,2.5,1.2v-10.4c-0.9-0.4-1.7-0.8-2.5-1.2
			C438.9,352.9,438.9,363.4,438.9,363.4z"/>
		<path id="XMLID_23_" class="st18" d="M484.5,364.6c0.9-0.4,1.7-0.8,2.5-1.2v-10.4c-0.8,0.4-1.6,0.8-2.5,1.2V364.6z"/>
		<path id="XMLID_21_" class="st18" d="M444,365.5c0.8,0.3,1.7,0.5,2.5,0.8V356c-0.9-0.3-1.7-0.5-2.5-0.8V365.5z"/>
		<path id="XMLID_20_" class="st18" d="M479.5,366.3c0.9-0.2,1.7-0.5,2.5-0.8v-10.3c-0.8,0.3-1.7,0.6-2.5,0.8V366.3z"/>
		<path id="XMLID_19_" class="st18" d="M450.3,367.2c0.8,0.2,1.7,0.3,2.5,0.4v-10.2c-0.9-0.1-1.7-0.3-2.5-0.5V367.2z"/>
		<path id="XMLID_18_" class="st18" d="M473.1,367.7c0.9-0.1,1.7-0.3,2.5-0.4V357c-0.8,0.2-1.7,0.3-2.5,0.5V367.7z"/>
		<path id="XMLID_17_" class="st18" d="M457.9,368.3c0.8,0.1,1.7,0.1,2.5,0.1v-10.1c-0.9,0-1.7-0.1-2.5-0.1V368.3z"/>
		<path id="XMLID_16_" class="st18" d="M465.5,368.4c0.9,0,1.7-0.1,2.5-0.1v-10.2c-0.8,0.1-1.7,0.1-2.5,0.1V368.4z"/>
		<path id="XMLID_15_" class="st19" d="M495.1,356.1c-3.4,7-16.5,12.3-32.1,12.3c-5.8,0-11.3-0.7-16.1-2c4.6,3.1,12.8,5.8,23.7,5.8
			c17.3,0,27.9-6.7,27.9-11.4C498.5,359.2,497.3,357.6,495.1,356.1"/>
		<path id="XMLID_14_" class="st19" d="M469.3,355.7c-18.2,0-33-7.1-33-15.9v-7.2c-4,2.5-6.3,5.6-6.3,9.1c0,8.8,14.8,16.5,33,16.5
			c8.8,0,16.7-1.8,22.6-4.6C480.8,355,475.3,355.7,469.3,355.7"/>
		<path id="XMLID_13_" class="st15" d="M469.3,345.6c-18.2,0-33-7.7-33-16.5v10.7c0,8.8,14.8,15.9,33,15.9s33-7.1,33-15.9v-10.7
			C502.3,337.9,487.5,345.6,469.3,345.6"/>
		<path id="XMLID_12_" class="st18" d="M440.2,347.3c0.7,0.7,1.6,1.3,2.5,2v-10.5c-0.9-0.6-1.8-1.3-2.5-2V347.3z"/>
		<path id="XMLID_11_" class="st18" d="M496,338.7v10.5c0.9-0.6,1.8-1.3,2.5-2v-10.6C497.7,337.4,496.9,338.1,496,338.7"/>
		<path id="XMLID_10_" class="st18" d="M445.3,350.7c0.8,0.4,1.6,0.8,2.5,1.2v-10.4c-0.9-0.4-1.7-0.8-2.5-1.2V350.7z"/>
		<path id="XMLID_9_" class="st18" d="M490.9,351.9c0.9-0.4,1.7-0.8,2.5-1.2v-10.4c-0.8,0.4-1.6,0.8-2.5,1.2V351.9z"/>
		<path id="XMLID_8_" class="st18" d="M450.3,352.8c0.8,0.3,1.7,0.5,2.5,0.8v-10.3c-0.9-0.3-1.7-0.5-2.5-0.8V352.8z"/>
		<path id="XMLID_7_" class="st18" d="M485.8,353.6c0.9-0.2,1.7-0.5,2.5-0.8v-10.3c-0.8,0.3-1.7,0.6-2.5,0.8V353.6z"/>
		<path id="XMLID_6_" class="st18" d="M456.7,354.5c0.8,0.2,1.7,0.3,2.5,0.4v-10.2c-0.9-0.1-1.7-0.3-2.5-0.5V354.5z"/>
		<path id="XMLID_5_" class="st18" d="M479.5,355c0.9-0.1,1.7-0.3,2.5-0.4v-10.2c-0.8,0.2-1.7,0.3-2.5,0.5V355z"/>
		<path id="XMLID_4_" class="st18" d="M464.3,355.6c0.8,0.1,1.7,0.1,2.5,0.1v-10.1c-0.9,0-1.7-0.1-2.5-0.1V355.6z"/>
		<path id="XMLID_3_" class="st18" d="M471.9,355.7c0.9,0,1.7-0.1,2.5-0.1v-10.2c-0.8,0.1-1.7,0.1-2.5,0.1V355.7z"/>
		<path id="XMLID_2_" class="st13" d="M502.3,329.1c0,8.8-14.8,16.5-33,16.5s-33-7.7-33-16.5c0-8.8,14.8-15.2,33-15.2
			S502.3,320.3,502.3,329.1"/>
		<path id="XMLID_1_" class="st19" d="M469.3,340.5c-17.3,0-27.9-6.7-27.9-11.4c0-4.6,10.5-11.4,27.9-11.4
			c17.3,0,27.9,6.8,27.9,11.4C497.2,333.7,486.7,340.5,469.3,340.5"/>
		<path id="XMLID_105_" class="st20" d="M477.9,330.8c1-0.2,1.6-0.9,1.4-1.6l-0.2-0.8c-0.2-0.6-0.9-1.1-1.7-1.3
			c-1.1-2.4-4.1-3.3-8.4-3.3c-0.2,0-0.4,0-0.6,0c-1.5,0.1-3-0.1-4.1-0.5c-0.5-0.2-0.9-0.3-1.1-0.5c-0.1-0.1-0.4,0-0.4,0.1
			c0,0.2,0,0.4,0.1,0.6c0.2,0.9,0,0.8-1,1.7c-0.5,0.6-1,1.2-1.3,1.9c-0.8,0.2-1.5,0.7-1.7,1.3l-0.2,0.8c-0.2,0.7,0.4,1.4,1.4,1.6
			c0.3,1.9,1.6,3.5,4.3,4.4l-0.2,1.3c0,0.4-0.3,0.7-0.8,0.8l-5.6,2c3.3,0.7,7,1.1,11.1,1.1c4.1,0,7.7-0.4,11-1.1l-5.5-2
			c-0.4-0.2-0.7-0.5-0.8-0.8l-0.2-1.3C476.4,334.3,477.6,332.7,477.9,330.8"/>
	</g>
	<g id="XMLID_24_" class="st0">
		<path id="XMLID_63_" class="st13" d="M1212.5,440.5v1.6c0,8.8-14.8,15.9-33,15.9c-10,0-19-2.2-25.1-5.6c2,7.9,15.9,14.5,32.7,14.5
			c18.2,0,33-7.7,33-16.5C1220.1,446.5,1217.3,443.1,1212.5,440.5"/>
		<path id="XMLID_62_" class="st15" d="M1187.2,466.9c-18.2,0-33-7.7-33-16.5v10.7c0,8.8,14.8,15.9,33,15.9s33-7.1,33-15.9v-10.7
			C1220.1,459.2,1205.4,466.9,1187.2,466.9"/>
		<path id="XMLID_61_" class="st18" d="M1158,468.6c0.7,0.7,1.6,1.3,2.5,2V460c-0.9-0.6-1.8-1.3-2.5-2V468.6z"/>
		<path id="XMLID_60_" class="st18" d="M1213.8,460v10.5c0.9-0.6,1.8-1.3,2.5-2V458C1215.6,458.7,1214.7,459.4,1213.8,460"/>
		<path id="XMLID_59_" class="st18" d="M1163.1,472c0.8,0.4,1.6,0.8,2.5,1.2v-10.4c-0.9-0.4-1.7-0.8-2.5-1.2V472z"/>
		<path id="XMLID_58_" class="st18" d="M1208.7,473.2c0.9-0.4,1.7-0.8,2.5-1.2v-10.4c-0.8,0.4-1.6,0.8-2.5,1.2V473.2z"/>
		<path id="XMLID_57_" class="st18" d="M1168.2,474.2c0.8,0.3,1.7,0.5,2.5,0.8v-10.3c-0.9-0.3-1.7-0.5-2.5-0.8V474.2z"/>
		<path id="XMLID_56_" class="st18" d="M1203.7,474.9c0.9-0.2,1.7-0.5,2.5-0.8v-10.3c-0.8,0.3-1.7,0.6-2.5,0.8V474.9z"/>
		<path id="XMLID_55_" class="st18" d="M1174.5,475.8c0.8,0.2,1.7,0.3,2.5,0.4v-10.2c-0.9-0.1-1.7-0.3-2.5-0.5V475.8z"/>
		<path id="XMLID_54_" class="st18" d="M1197.3,476.3c0.9-0.1,1.7-0.3,2.5-0.4v-10.2c-0.8,0.2-1.7,0.3-2.5,0.5V476.3z"/>
		<path id="XMLID_53_" class="st18" d="M1182.1,476.9c0.8,0.1,1.7,0.1,2.5,0.1v-10.1c-0.9,0-1.7-0.1-2.5-0.1V476.9z"/>
		<path id="XMLID_52_" class="st18" d="M1189.7,477c0.9,0,1.7-0.1,2.5-0.1v-10.2c-0.8,0.1-1.7,0.1-2.5,0.1V477z"/>
		<path id="XMLID_51_" class="st15" d="M1179.6,447.8c-18.2,0-33-7.7-33-16.5v10.7c0,8.8,14.8,15.9,33,15.9s33-7.1,33-15.9v-10.7
			C1212.5,440.2,1197.8,447.8,1179.6,447.8"/>
		<path id="XMLID_50_" class="st18" d="M1150.4,449.6c0.7,0.7,1.6,1.3,2.5,2V441c-0.9-0.6-1.8-1.3-2.5-2
			C1150.4,439,1150.4,449.6,1150.4,449.6z"/>
		<path id="XMLID_49_" class="st18" d="M1206.2,441v10.5c0.9-0.6,1.8-1.3,2.5-2V439C1208,439.7,1207.1,440.4,1206.2,441"/>
		<path id="XMLID_48_" class="st18" d="M1155.5,453c0.8,0.4,1.6,0.8,2.5,1.2v-10.4c-0.9-0.4-1.7-0.8-2.5-1.2
			C1155.5,442.6,1155.5,453,1155.5,453z"/>
		<path id="XMLID_47_" class="st18" d="M1201.1,454.2c0.9-0.4,1.7-0.8,2.5-1.2v-10.4c-0.8,0.4-1.6,0.8-2.5,1.2V454.2z"/>
		<path id="XMLID_46_" class="st18" d="M1160.6,455.1c0.8,0.3,1.7,0.5,2.5,0.8v-10.3c-0.9-0.3-1.7-0.5-2.5-0.8V455.1z"/>
		<path id="XMLID_45_" class="st18" d="M1196,455.9c0.9-0.2,1.7-0.5,2.5-0.8v-10.3c-0.8,0.3-1.7,0.6-2.5,0.8V455.9z"/>
		<path id="XMLID_44_" class="st18" d="M1166.9,456.8c0.8,0.2,1.7,0.3,2.5,0.4v-10.2c-0.9-0.1-1.7-0.3-2.5-0.5V456.8z"/>
		<path id="XMLID_43_" class="st18" d="M1189.7,457.3c0.9-0.1,1.7-0.3,2.5-0.4v-10.2c-0.8,0.2-1.7,0.3-2.5,0.5V457.3z"/>
		<path id="XMLID_42_" class="st18" d="M1174.5,457.9c0.8,0.1,1.7,0.1,2.5,0.1v-10.1c-0.9,0-1.7-0.1-2.5-0.1V457.9z"/>
		<path id="XMLID_41_" class="st18" d="M1182.1,458c0.9,0,1.7-0.1,2.5-0.1v-10.2c-0.8,0.1-1.7,0.1-2.5,0.1V458z"/>
		<path id="XMLID_40_" class="st19" d="M1211.7,445.7c-3.4,7-16.5,12.3-32.1,12.3c-5.8,0-11.3-0.7-16.1-2c4.6,3.1,12.8,5.8,23.7,5.8
			c17.3,0,27.9-6.7,27.9-11.4C1215.1,448.8,1213.9,447.2,1211.7,445.7"/>
		<path id="XMLID_39_" class="st19" d="M1185.9,445.3c-18.2,0-33-7.1-33-15.9v-7.2c-4,2.5-6.3,5.6-6.3,9.1c0,8.8,14.8,16.5,33,16.5
			c8.8,0,16.7-1.8,22.6-4.6C1197.4,444.6,1191.8,445.3,1185.9,445.3"/>
		<path id="XMLID_38_" class="st15" d="M1185.9,435.2c-18.2,0-33-7.7-33-16.5v10.7c0,8.8,14.8,15.9,33,15.9s33-7.1,33-15.9v-10.7
			C1218.9,427.5,1204.1,435.2,1185.9,435.2"/>
		<path id="XMLID_37_" class="st18" d="M1156.8,436.9c0.7,0.7,1.6,1.3,2.5,2v-10.5c-0.9-0.6-1.8-1.3-2.5-2V436.9z"/>
		<path id="XMLID_36_" class="st18" d="M1212.5,428.3v10.5c0.9-0.6,1.8-1.3,2.5-2v-10.6C1214.3,427,1213.5,427.7,1212.5,428.3"/>
		<path id="XMLID_35_" class="st18" d="M1161.8,440.3c0.8,0.4,1.6,0.8,2.5,1.2v-10.4c-0.9-0.4-1.7-0.8-2.5-1.2V440.3z"/>
		<path id="XMLID_34_" class="st18" d="M1207.5,441.5c0.9-0.4,1.7-0.8,2.5-1.2v-10.4c-0.8,0.4-1.6,0.8-2.5,1.2V441.5z"/>
		<path id="XMLID_33_" class="st18" d="M1166.9,442.5c0.8,0.3,1.7,0.5,2.5,0.8V433c-0.9-0.3-1.7-0.5-2.5-0.8V442.5z"/>
		<path id="XMLID_32_" class="st18" d="M1202.4,443.2c0.9-0.2,1.7-0.5,2.5-0.8v-10.3c-0.8,0.3-1.7,0.6-2.5,0.8V443.2z"/>
		<path id="XMLID_31_" class="st18" d="M1173.2,444.2c0.8,0.2,1.7,0.3,2.5,0.4v-10.2c-0.9-0.1-1.7-0.3-2.5-0.5V444.2z"/>
		<path id="XMLID_30_" class="st18" d="M1196,444.6c0.9-0.1,1.7-0.3,2.5-0.4v-10.2c-0.8,0.2-1.7,0.3-2.5,0.5V444.6z"/>
		<path id="XMLID_29_" class="st18" d="M1180.8,445.2c0.8,0.1,1.7,0.1,2.5,0.1v-10.1c-0.9,0-1.7-0.1-2.5-0.1V445.2z"/>
		<path id="XMLID_28_" class="st18" d="M1188.4,445.3c0.9,0,1.7-0.1,2.5-0.1V435c-0.8,0.1-1.7,0.1-2.5,0.1V445.3z"/>
		<path id="XMLID_27_" class="st13" d="M1218.9,418.7c0,8.8-14.8,16.5-33,16.5s-33-7.7-33-16.5s14.8-15.2,33-15.2
			S1218.9,409.9,1218.9,418.7"/>
		<path id="XMLID_26_" class="st19" d="M1185.9,430.1c-17.3,0-27.9-6.7-27.9-11.4c0-4.6,10.5-11.4,27.9-11.4
			c17.3,0,27.9,6.8,27.9,11.4C1213.8,423.3,1203.3,430.1,1185.9,430.1"/>
		<path id="XMLID_25_" class="st20" d="M1194.5,420.4c1-0.2,1.6-0.9,1.4-1.6l-0.2-0.8c-0.2-0.6-0.9-1.1-1.7-1.3
			c-1.1-2.4-4.1-3.3-8.4-3.3c-0.2,0-0.4,0-0.6,0c-1.5,0.1-3-0.1-4.1-0.5c-0.5-0.2-0.9-0.3-1.1-0.5c-0.1-0.1-0.4,0-0.4,0.1
			c0,0.2,0,0.4,0.1,0.6c0.2,0.9,0,0.8-1,1.7c-0.5,0.6-1,1.2-1.3,1.9c-0.8,0.2-1.5,0.7-1.7,1.3l-0.2,0.8c-0.2,0.7,0.4,1.4,1.4,1.6
			c0.3,1.9,1.6,3.5,4.3,4.4l-0.2,1.3c0,0.4-0.3,0.7-0.8,0.8l-5.6,2c3.3,0.7,7,1.1,11.1,1.1c4.1,0,7.7-0.4,11-1.1l-5.5-2
			c-0.4-0.2-0.7-0.5-0.8-0.8l-0.2-1.3C1192.9,423.9,1194.2,422.3,1194.5,420.4"/>
	</g>
	<g id="XMLID_80_" class="st0">
		<rect id="XMLID_73_" x="1057.9" y="186.8" class="st21" width="130.7" height="74.7"/>
		<polygon id="XMLID_72_" class="st22" points="1179.2,186.8 1062.6,186.8 1062.6,177.5 		"/>
		<path id="XMLID_79_" class="st23" d="M1153.6,224.2c0,16.8-13.6,30.3-30.3,30.3s-30.3-13.6-30.3-30.3s13.6-30.3,30.3-30.3
			S1153.6,207.4,1153.6,224.2"/>
		<path id="XMLID_71_" class="st24" d="M1107.1,249.9c-8.5-5.4-14.2-14.8-14.2-25.7s5.7-20.3,14.2-25.7h-23.6c0,0.4,0.1,0.8,0.1,1.2
			c0,7.1-5.7,12.8-12.8,12.8c-0.4,0-0.8,0-1.2-0.1v23.5c0.4,0,0.8-0.1,1.2-0.1c7.1,0,12.8,5.7,12.8,12.8c0,0.4,0,0.8-0.1,1.2H1107.1
			z"/>
		<path id="XMLID_70_" class="st24" d="M1175.7,212.5c-7.1,0-12.8-5.7-12.8-12.8c0-0.4,0-0.8,0.1-1.2h-23.6
			c8.5,5.4,14.2,14.8,14.2,25.7s-5.7,20.3-14.2,25.7h23.6c0-0.4-0.1-0.8-0.1-1.2c0-7.1,5.7-12.8,12.8-12.8c0.4,0,0.8,0,1.2,0.1
			v-23.5C1176.5,212.5,1176.1,212.5,1175.7,212.5"/>
		<path id="XMLID_69_" class="st24" d="M1070.7,205.5c-3.2,0-5.8-2.6-5.8-5.8c0-3.2,2.6-5.8,5.8-5.8c3.2,0,5.8,2.6,5.8,5.8
			C1076.6,202.9,1073.9,205.5,1070.7,205.5"/>
		<path id="XMLID_68_" class="st24" d="M1175.7,205.5c-3.2,0-5.8-2.6-5.8-5.8c0-3.2,2.6-5.8,5.8-5.8c3.2,0,5.8,2.6,5.8,5.8
			C1181.6,202.9,1179,205.5,1175.7,205.5"/>
		<path id="XMLID_67_" class="st24" d="M1070.7,254.5c-3.2,0-5.8-2.6-5.8-5.8c0-3.2,2.6-5.8,5.8-5.8c3.2,0,5.8,2.6,5.8,5.8
			C1076.6,251.9,1073.9,254.5,1070.7,254.5"/>
		<path id="XMLID_66_" class="st24" d="M1175.7,254.5c-3.2,0-5.8-2.6-5.8-5.8c0-3.2,2.6-5.8,5.8-5.8c3.2,0,5.8,2.6,5.8,5.8
			C1181.6,251.9,1179,254.5,1175.7,254.5"/>
		<polygon id="XMLID_65_" class="st25" points="1069.6,168.2 1069.6,178.1 1179.2,186.8 1186.2,186.8 		"/>
		<path id="XMLID_64_" class="st24" d="M1136.2,231.2c1.7-0.5,2.9-2,2.9-3.9v-2c0-1.6-0.9-2.9-2.2-3.6c-0.9-7.6-5.9-10.7-14.1-10.7
			c-0.4,0-0.8,0-1.1,0c-2.8,0.2-5.6-0.3-7.8-1.8c-1-0.6-1.8-1.3-2.3-2c-0.3-0.3-0.8-0.1-0.7,0.3c0.1,0.7,0.2,1.5,0.4,2.4
			c0.7,3.4,0.3,2.9-1,6.1c-0.7,1.8-1.2,3.7-1.4,5.8c-1.3,0.7-2.2,2-2.2,3.6v2c0,1.8,1.2,3.4,2.9,3.9c1.1,4.1,3.4,7.4,7.3,9.1v2.3
			c0,0.6-0.3,1.1-0.9,1.4l-7.8,3.9c-0.7,0.4-1.2,0.9-1.7,1.4c4.8,3.3,10.7,5.2,16.9,5.2c6,0,11.7-1.8,16.4-4.8
			c-0.6-0.7-1.3-1.3-2.2-1.7l-7.7-3.9c-0.5-0.3-0.9-0.8-0.9-1.4v-2.3C1132.9,238.6,1135.1,235.4,1136.2,231.2"/>
	</g>
	<path class="st26" d="M1364,339.8h74.1v34.8H1364V339.8z"/>
	<path class="st27" d="M1355.4,374.6h91.4c4.7,0,8.6,3.9,8.6,8.6s-3.9,8.6-8.6,8.6h-91.4c-4.7,0-8.6-3.9-8.6-8.6
		S1350.6,374.6,1355.4,374.6z"/>
	<path class="st28" d="M1272.6,135.3h252.4c7.2,0,13.1,5.9,13.1,13.1v175.8c0,7.2-278.6,7.2-278.6,0V148.4
		C1259.5,141.1,1265.4,135.3,1272.6,135.3z"/>
	<path class="st29" d="M1272.6,148.4h252.4v147.9h-252.4V148.4z"/>
	<path class="st27" d="M1368.5,187.7h61c2.5,0,4.5,2,4.5,4.5v65.2c0,2.5-2,4.5-4.5,4.5h-61c-2.5,0-4.5-2-4.5-4.5v-65.5
		C1364,189.6,1366,187.7,1368.5,187.7z"/>
	<path class="st4" d="M1381.6,239.8h34.8v8.6h-34.8V239.8z"/>
	<path class="st30" d="M1398.8,200.5c7.2,0,13.1,5.9,13.1,13.1s-5.9,13.1-13.1,13.1c-7.2,0-13.1-5.9-13.1-13.1
		S1391.6,200.5,1398.8,200.5z"/>
	<path class="st31" d="M1364,339.8h74.1v13.1H1364V339.8z"/>
	<path class="st27" d="M1259.5,327c0,7.2,5.9,13.1,13.1,13.1h252.4c7.2,0,13.1-5.9,13.1-13.1v-17.3h-278.6V327z"/>
	<path class="st32" d="M761.7,286.7c-0.5,1-1.6,1.7-2.8,1.7s-2.2-0.7-2.8-1.7c-2.2-4.5-3.4-9.4-3.4-14.4V168.9
		c0-3.4,2.8-6.2,6.2-6.2c3.4,0,6.2,2.8,6.2,6.2v103.4C765.1,277.2,764,282.2,761.7,286.7z"/>
	<path class="st33" d="M755.9,163.6c-1.9,1.1-3.1,3.1-3.1,5.3v103.4c0,4.7,1.1,9.4,3.1,13.7V163.6z"/>
	<path class="st32" d="M604.8,144.2h111c6.8,0,12.3,5.5,12.3,12.3v154.1c0,6.8-5.5,12.3-12.3,12.3h-111c-6.8,0-12.3-5.5-12.3-12.3
		V156.5C592.5,149.7,598,144.2,604.8,144.2z"/>
	<path class="st34" d="M604.8,144.2h107.9c6.8,0,12.3,5.5,12.3,12.3v154.1c0,6.8-5.5,12.3-12.3,12.3H604.8
		c-6.8,0-12.3-5.5-12.3-12.3V156.5C592.5,149.7,598,144.2,604.8,144.2z"/>
	<path class="st35" d="M607.9,156.5h104.8c1.7,0,3.1,1.4,3.1,3.1v141.8c0,1.7-1.4,3.1-3.1,3.1H607.9c-1.7,0-3.1-1.4-3.1-3.1V159.6
		C604.8,157.9,606.2,156.5,607.9,156.5z"/>
	<path class="st36" d="M663.4,316.9h-6.2c-1.7,0-3.1-1.4-3.1-3.1c0-1.7,1.4-3.1,3.1-3.1h6.2c1.7,0,3.1,1.4,3.1,3.1
		C666.5,315.5,665.1,316.9,663.4,316.9z"/>
	<path class="st37" d="M752.8,190.5h12.3v12.3h-12.3V190.5z"/>
	<path class="st36" d="M752.8,190.5h3.1v12.3h-3.1V190.5z"/>
	<path class="st38" d="M737.4,230.5h6.2v6.2h-6.2V230.5z"/>
	<path class="st32" d="M623.3,168.9h12.3c1.7,0,3.1,1.4,3.1,3.1v12.3c0,1.7-1.4,3.1-3.1,3.1h-12.3c-1.7,0-3.1-1.4-3.1-3.1V172
		C620.3,170.3,621.6,168.9,623.3,168.9z"/>
	<path class="st39" d="M654.2,168.9h12.3c1.7,0,3.1,1.4,3.1,3.1v12.3c0,1.7-1.4,3.1-3.1,3.1h-12.3c-1.7,0-3.1-1.4-3.1-3.1V172
		C651.1,170.3,652.5,168.9,654.2,168.9z"/>
	<path class="st40" d="M685,168.9h12.3c1.7,0,3.1,1.4,3.1,3.1v12.3c0,1.7-1.4,3.1-3.1,3.1H685c-1.7,0-3.1-1.4-3.1-3.1V172
		C681.9,170.3,683.3,168.9,685,168.9z"/>
	<path class="st41" d="M623.3,202.8h12.3c1.7,0,3.1,1.4,3.1,3.1v12.3c0,1.7-1.4,3.1-3.1,3.1h-12.3c-1.7,0-3.1-1.4-3.1-3.1v-12.3
		C620.3,204.2,621.6,202.8,623.3,202.8z"/>
	<path class="st36" d="M654.2,202.8h12.3c1.7,0,3.1,1.4,3.1,3.1v12.3c0,1.7-1.4,3.1-3.1,3.1h-12.3c-1.7,0-3.1-1.4-3.1-3.1v-12.3
		C651.1,204.2,652.5,202.8,654.2,202.8z"/>
	<path class="st39" d="M685,202.8h12.3c1.7,0,3.1,1.4,3.1,3.1v12.3c0,1.7-1.4,3.1-3.1,3.1H685c-1.7,0-3.1-1.4-3.1-3.1v-12.3
		C681.9,204.2,683.3,202.8,685,202.8z"/>
	<path class="st32" d="M623.3,236.7h12.3c1.7,0,3.1,1.4,3.1,3.1v12.3c0,1.7-1.4,3.1-3.1,3.1h-12.3c-1.7,0-3.1-1.4-3.1-3.1v-12.3
		C620.3,238.1,621.6,236.7,623.3,236.7z"/>
	<path class="st39" d="M654.2,236.7h12.3c1.7,0,3.1,1.4,3.1,3.1v12.3c0,1.7-1.4,3.1-3.1,3.1h-12.3c-1.7,0-3.1-1.4-3.1-3.1v-12.3
		C651.1,238.1,652.5,236.7,654.2,236.7z"/>
	<path class="st42" d="M685,236.7h12.3c1.7,0,3.1,1.4,3.1,3.1v12.3c0,1.7-1.4,3.1-3.1,3.1H685c-1.7,0-3.1-1.4-3.1-3.1v-12.3
		C681.9,238.1,683.3,236.7,685,236.7z"/>
	<path class="st43" d="M657.2,264.4h6.2v6.2h-6.2V264.4z"/>
	<path class="st44" d="M644.9,264.4h6.2v6.2h-6.2V264.4z"/>
	<path class="st45" d="M669.6,264.4h6.2v6.2h-6.2V264.4z"/>
	<path class="st40" d="M654.2,279.9h12.3v12.3h-12.3V279.9z"/>
	<path class="st32" d="M629.5,279.9h12.3v12.3h-12.3V279.9z"/>
	<path class="st39" d="M678.8,279.9h12.3v12.3h-12.3V279.9z"/>
</g>
</svg>
