<svg width="390" height="157" viewBox="0 0 390 157" fill="none" xmlns="http://www.w3.org/2000/svg">
<path d="M389 2C273.333 -4 34.4 18.4 4 156" stroke="#8EBA5B"/>
<path d="M1 149L4 156L10 152" stroke="#8EBA5B"/>
</svg>
